Get the day-to-day reports — get_reports • canadacovid
…
before
Returns reports from only on or before the specified date,
in YYYY-MM-DD format.

    Value

    A data frame containing the reports data, one row per day. Includes
a province variable if data is split by province, and a hr_uid variable
if data is split by health region.

    Examples

get_reports()
#> # A tibble: 713 × 22
#>    last_updated        date       change_cases change_fatalities change_tests
#>    <dttm>              <date>            <int>             <int>        <int>
#>  1 2022-01-06 00:00:00 2020-01-25            1                 0            2
#>  2 2022-01-06 00:00:00 2020-01-26            1                 0            4
#>  3 2022-01-06 00:00:00 2020-01-27            0                 0           20
#>  4 2022-01-06 00:00:00 2020-01-28            1                 0           10
#>  5 2022-01-06 00:00:00 2020-01-29            0                 0            3
#>  6 2022-01-06 00:00:00 2020-01-30            0                 0           26
#>  7 2022-01-06 00:00:00 2020-01-31            1                 0           33
#>  8 2022-01-06 00:00:00 2020-02-01            0                 0           23
#>  9 2022-01-06 00:00:00 2020-02-02            0                 0           24
#> 10 2022-01-06 00:00:00 2020-02-03            0                 0           16
#> # … with 703 more rows, and 17 more variables: change_hospitalizations <int>,
#> #   change_criticals <int>, change_recoveries <int>, change_vaccinations <int>,
#> #   change_vaccinated <int>, change_boosters_1 <int>,
#> #   change_vaccines_distributed <int>, total_cases <int>,
#> #   total_fatalities <int>, total_tests <int>, total_hospitalizations <int>,
#> #   total_criticals <int>, total_recoveries <int>, total_vaccinations <int>,
#> #   total_vaccinated <int>, total_boosters_1 <int>, …
get_reports("province")
#> # A tibble: 9,269 × 23
#>    province last_updated        date       change_cases change_fatalities
#>    <chr>    <dttm>              <date>            <int>             <int>
#>  1 AB       2022-01-06 00:00:00 2020-01-25            0                 0
#>  2 AB       2022-01-06 00:00:00 2020-01-26            0                 0
#>  3 AB       2022-01-06 00:00:00 2020-01-27            0                 0
#>  4 AB       2022-01-06 00:00:00 2020-01-28            0                 0
#>  5 AB       2022-01-06 00:00:00 2020-01-29            0                 0
#>  6 AB       2022-01-06 00:00:00 2020-01-30            0                 0
#>  7 AB       2022-01-06 00:00:00 2020-01-31            0                 0
#>  8 AB       2022-01-06 00:00:00 2020-02-01            0                 0
#>  9 AB       2022-01-06 00:00:00 2020-02-02            0                 0
#> 10 AB       2022-01-06 00:00:00 2020-02-03            0                 0
#> # … with 9,259 more rows, and 18 more variables: change_tests <int>,
#> #   change_hospitalizations <int>, change_criticals <int>,
#> #   change_recoveries <int>, change_vaccinations <int>,
#> #   change_vaccinated <int>, change_boosters_1 <int>,
#> #   change_vaccines_distributed <int>, total_cases <int>,
#> #   total_fatalities <int>, total_tests <int>, total_hospitalizations <int>,
#> #   total_criticals <int>, total_recoveries <int>, total_vaccinations <int>, …
get_reports(province = c("AB", "SK"))
#> # A tibble: 1,426 × 23
#>    province last_updated        date       change_cases change_fatalities
#>    <chr>    <dttm>              <date>            <int>             <int>
#>  1 AB       2022-01-06 00:00:00 2020-01-25            0                 0
#>  2 AB       2022-01-06 00:00:00 2020-01-26            0                 0
#>  3 AB       2022-01-06 00:00:00 2020-01-27            0                 0
#>  4 AB       2022-01-06 00:00:00 2020-01-28            0                 0
#>  5 AB       2022-01-06 00:00:00 2020-01-29            0                 0
#>  6 AB       2022-01-06 00:00:00 2020-01-30            0                 0
#>  7 AB       2022-01-06 00:00:00 2020-01-31            0                 0
#>  8 AB       2022-01-06 00:00:00 2020-02-01            0                 0
#>  9 AB       2022-01-06 00:00:00 2020-02-02            0                 0
#> 10 AB       2022-01-06 00:00:00 2020-02-03            0                 0
#> # … with 1,416 more rows, and 18 more variables: change_tests <int>,
#> #   change_hospitalizations <int>, change_criticals <int>,
#> #   change_recoveries <int>, change_vaccinations <int>,
#> #   change_vaccinated <int>, change_boosters_1 <int>,
#> #   change_vaccines_distributed <int>, total_cases <int>,
#> #   total_fatalities <int>, total_tests <int>, total_hospitalizations <int>,
#> #   total_criticals <int>, total_recoveries <int>, total_vaccinations <int>, …
get_reports(region = 1204)
#> # A tibble: 697 × 9
#>    hr_uid last_updated        date       change_cases change_fatalities
#>     <int> <dttm>              <date>            <int>             <int>
#>  1   1204 2022-01-06 00:00:00 2020-01-17            0                 0
#>  2   1204 2022-01-06 00:00:00 2020-01-18            0                 0
#>  3   1204 2022-01-06 00:00:00 2020-01-19            0                 0
#>  4   1204 2022-01-06 00:00:00 2020-01-20            0                 0
#>  5   1204 2022-01-06 00:00:00 2020-01-21            0                 0
#>  6   1204 2022-01-06 00:00:00 2020-01-22            0                 0
#>  7   1204 2022-01-06 00:00:00 2020-01-23            0                 0
#>  8   1204 2022-01-06 00:00:00 2020-01-24            0                 0
#>  9   1204 2022-01-06 00:00:00 2020-01-25            0                 0
#> 10   1204 2022-01-06 00:00:00 2020-01-26            0                 0
#> # … with 687 more rows, and 4 more variables: total_cases <int>,
#> #   total_fatalities <int>, change_recoveries <int>, total_recoveries <int>
get_reports(region = c("472", 1204), stat = "cases")
#> # A tibble: 1,410 × 5
#>    hr_uid last_updated        date       change_cases total_cases
#>     <int> <dttm>              <date>            <int>       <int>
#>  1    472 2022-01-06 00:00:00 2020-01-17            0           0
#>  2    472 2022-01-06 00:00:00 2020-01-18            0           0
#>  3    472 2022-01-06 00:00:00 2020-01-19            0           0
#>  4    472 2022-01-06 00:00:00 2020-01-20            0           0
#>  5    472 2022-01-06 00:00:00 2020-01-21            0           0
#>  6    472 2022-01-06 00:00:00 2020-01-22            0           0
#>  7    472 2022-01-06 00:00:00 2020-01-23            0           0
#>  8    472 2022-01-06 00:00:00 2020-01-24            0           0
#>  9    472 2022-01-06 00:00:00 2020-01-25            0           0
#> 10    472 2022-01-06 00:00:00 2020-01-26            0           0
#> # … with 1,400 more rows
…
