Get the most recent summary data — get_summary • canadacovid
…
#>  8 SK       2021-12-31          742                 0         2819
#>  9 AB       2021-12-31            0                 0            0
#> 10 NL       2021-12-31            0                 0            0
#> 11 NT       2021-12-31            0                 0            0
#> 12 YT       2021-12-31            0                 0            0
#> 13 NU       2021-12-31            0                 0            0
#> # … with 18 more variables: change_hospitalizations <int>,
#> #   change_criticals <int>, change_recoveries <int>, change_vaccinations <int>,
#> #   change_vaccinated <int>, change_boosters_1 <int>,
#> #   change_vaccines_distributed <int>, total_cases <int>,
#> #   total_fatalities <int>, total_tests <int>, total_hospitalizations <int>,
#> #   total_criticals <int>, total_recoveries <int>, total_vaccinations <int>,
#> #   total_vaccinated <int>, total_boosters_1 <int>, …
get_summary("region")
#> # A tibble: 92 × 19
#>    hr_uid date       change_cases change_fatalities change_recoveri… total_cases
#>     <int> <date>            <int>             <int>            <int>       <int>
#>  1   6101 2021-12-23            0                 0                0        2090
#>  2   6001 2021-12-23            9                 0                7        1661
#>  3   1100 2021-12-23           NA                NA               NA         529
#>  4   6201 2021-12-28           31                 0                0         710
#>  5   1011 2021-12-29           NA                NA               NA        1380
#>  6   1012 2021-12-29           NA                NA               NA         540
#>  7   1013 2021-12-29           NA                NA               NA         305
#>  8   1014 2021-12-29           NA                NA               NA          42
#>  9   1201 2021-12-30           NA                NA               NA         685
#> 10   1202 2021-12-30           NA                NA               NA        1005
#> # … with 82 more rows, and 13 more variables: total_fatalities <int>,
#> #   total_tests <int>, total_hospitalizations <int>, total_criticals <int>,
#> #   total_recoveries <int>, total_vaccinations <int>, total_vaccinated <int>,
#> #   total_boosters_1 <int>, change_tests <int>, change_vaccinations <int>,
#> #   change_vaccinated <int>, change_boosters_1 <int>, last_updated <dttm>
…
