Get vaccination data — get_vaccination_data • canadacovid
…
#>  7 PE       2022-07-23 09:22:02 2022-07…       0       0       0       0       0
#>  8 SK       2022-07-23 09:22:02 2022-07…       0       0       0       0       0
#>  9 AB       2022-07-23 09:22:02 2022-07…       0       0       0       0       0
#> 10 NL       2022-07-23 09:22:02 2022-07…       0       0       0       0       0
#> 11 NT       2022-07-23 09:22:02 2022-07…       0       0       0       0       0
#> 12 YT       2022-07-23 09:22:02 2022-07…       0       0       0       0       0
#> 13 NU       2022-07-23 09:22:02 2022-07…       0       0       0       0       0
#> # … with 5 more variables: total_vaccinations <int>, total_vaccinated <int>,
#> #   total_boosters_1 <int>, total_boosters_2 <int>,
#> #   total_vaccines_distributed <int>, and abbreviated variable names
#> #   ¹​change_vaccinations, ²​change_vaccinated, ³​change_boosters_1,
#> #   ⁴​change_boosters_2, ⁵​change_vaccines_distributed
#> # ℹ Use `colnames()` to see all variable names
get_vaccination_data(type = "reports", split = "overall")
#> # A tibble: 910 × 12
#>    last_updated        date       change_vacci…¹ chang…² chang…³ chang…⁴ chang…⁵
#>    <dttm>              <date>              <int>   <int>   <int>   <int>   <int>
#>  1 2022-07-23 09:22:02 2020-01-25              0       0       0       0       0
#>  2 2022-07-23 09:22:02 2020-01-26              0       0       0       0       0
#>  3 2022-07-23 09:22:02 2020-01-27              0       0       0       0       0
#>  4 2022-07-23 09:22:02 2020-01-28              0       0       0       0       0
#>  5 2022-07-23 09:22:02 2020-01-29              0       0       0       0       0
#>  6 2022-07-23 09:22:02 2020-01-30              0       0       0       0       0
#>  7 2022-07-23 09:22:02 2020-01-31              0       0       0       0       0
#>  8 2022-07-23 09:22:02 2020-02-01              0       0       0       0       0
#>  9 2022-07-23 09:22:02 2020-02-02              0       0       0       0       0
#> 10 2022-07-23 09:22:02 2020-02-03              0       0       0       0       0
#> # … with 900 more rows, 5 more variables: total_vaccinations <int>,
#> #   total_vaccinated <int>, total_boosters_1 <int>, total_boosters_2 <int>,
#> #   total_vaccines_distributed <int>, and abbreviated variable names
#> #   ¹​change_vaccinations, ²​change_vaccinated, ³​change_boosters_1,
#> #   ⁴​change_boosters_2, ⁵​change_vaccines_distributed
#> # ℹ Use `print(n = ...)` to see more rows, and `colnames()` to see all variable names
…
